// Jest Snapshot v1, https://goo.gl/fbAQLP

exports[`<Cart /> Renders properly 1`] = `
<Link
  to="/checkout"
>
  <styled.div>
    <styled.img
      alt="Shopping cart"
      src="bag.png"
    />
    <styled.h1>
      10
    </styled.h1>
  </styled.div>
</Link>
`;
