// Jest Snapshot v1, https://goo.gl/fbAQLP

exports[`<NothingHereYet /> Renders properly 1`] = `
<div
  className="NothingHere"
>
  <h1>
    Você ainda não adicionou nenhum funcionário no seu carrinho!
  </h1>
  <img
    alt="Adicione itens no carrinho"
    src="cart.png"
  />
  <Link
    className="Link"
    to="/"
  >
    ESCOLHER FUNCIONÁRIOS
  </Link>
</div>
`;
