// Jest Snapshot v1, https://goo.gl/fbAQLP

exports[`<Modal /> Renders ok 1`] = `
<div
  className="Modal"
  style={
    Object {
      "transform": "translateX(-100vw)",
    }
  }
>
  <div
    className="Background"
  >
    <div
      className="Content"
    >
      <div
        className="ItemAdicionado"
      >
        <img
          alt=""
          src="bag_plusOne.png"
        />
        <p>
          <strong>
            Otavio
          </strong>
           foi adicionado(a) à sua lista.
        </p>
      </div>
    </div>
    <div
      className="Buttons"
    >
      <buyMore>
        COMPRAR 
        <br />
         MAIS
      </buyMore>
      <button
        url="/checkout"
      >
        FINALIZAR 
        <br />
         COMPRA
      </button>
    </div>
  </div>
</div>
`;
